<svg width="26" height="18" viewBox="0 0 26 18" fill="none" xmlns="http://www.w3.org/2000/svg">
<path d="M19.4935 5.625H23.8333V4.5C23.8333 3.25736 22.8633 2.25 21.6667 2.25H4.33333C3.13672 2.25 2.16667 3.25736 2.16667 4.5V13.5C2.16667 14.7426 3.13672 15.75 4.33333 15.75H21.6667C22.8633 15.75 23.8333 14.7426 23.8333 13.5V12.375H19.4935C18.286 12.375 17.3072 11.4432 17.3072 10.2938V7.70625C17.3072 6.55681 18.286 5.625 19.4935 5.625Z" fill="#A3D96C"/>
<path d="M19.4935 7.5375C19.3956 7.5375 19.3163 7.61305 19.3163 7.70625V10.2938C19.3163 10.3869 19.3956 10.4625 19.4935 10.4625H23.8141V7.5375H19.4935Z" fill="#A3D96C"/>
<path fill-rule="evenodd" clip-rule="evenodd" d="M4.33333 0C1.9401 0 0 2.01472 0 4.5V13.5C0 15.9853 1.9401 18 4.33333 18H21.6667C24.0599 18 26 15.9853 26 13.5V4.5C26 2.01472 24.0599 0 21.6667 0H4.33333ZM23.8333 5.625V4.5C23.8333 3.25736 22.8633 2.25 21.6667 2.25H4.33333C3.13672 2.25 2.16667 3.25736 2.16667 4.5V13.5C2.16667 14.7426 3.13672 15.75 4.33333 15.75H21.6667C22.8633 15.75 23.8333 14.7426 23.8333 13.5V12.375L23.8141 10.4625V7.5375L23.8333 5.625Z" fill="#A3D96C"/>
</svg>
