<svg width="30" height="29" viewBox="0 0 30 29" fill="none" xmlns="http://www.w3.org/2000/svg">
<g filter="url(#filter0_dd)">
<path d="M14.1033 8.81698C14.4701 8.07374 15.5299 8.07374 15.8967 8.81699L17.1185 11.2925C17.2641 11.5876 17.5457 11.7922 17.8714 11.8395L20.6033 12.2365C21.4235 12.3557 21.751 13.3637 21.1575 13.9422L19.1807 15.8691C18.945 16.0988 18.8375 16.4298 18.8931 16.7542L19.3598 19.4751C19.4999 20.292 18.6424 20.9149 17.9088 20.5293L15.4653 19.2446C15.174 19.0915 14.826 19.0915 14.5347 19.2446L12.0912 20.5293C11.3576 20.9149 10.5001 20.292 10.6402 19.4751L11.1069 16.7542C11.1625 16.4298 11.055 16.0988 10.8193 15.8691L8.8425 13.9422C8.24898 13.3637 8.57649 12.3557 9.39671 12.2365L12.1286 11.8395C12.4543 11.7922 12.7359 11.5876 12.8815 11.2925L14.1033 8.81698Z" fill="#F9C133"/>
</g>
<defs>
<filter id="filter0_dd" x="0.539307" y="0.259552" width="28.9212" height="28.3868" filterUnits="userSpaceOnUse" color-interpolation-filters="sRGB">
<feFlood flood-opacity="0" result="BackgroundImageFix"/>
<feColorMatrix in="SourceAlpha" type="matrix" values="0 0 0 0 0 0 0 0 0 0 0 0 0 0 0 0 0 0 127 0"/>
<feOffset/>
<feGaussianBlur stdDeviation="4"/>
<feColorMatrix type="matrix" values="0 0 0 0 0.976471 0 0 0 0 0.756863 0 0 0 0 0.2 0 0 0 0.2 0"/>
<feBlend mode="normal" in2="BackgroundImageFix" result="effect1_dropShadow"/>
<feColorMatrix in="SourceAlpha" type="matrix" values="0 0 0 0 0 0 0 0 0 0 0 0 0 0 0 0 0 0 127 0"/>
<feOffset/>
<feGaussianBlur stdDeviation="1.5"/>
<feColorMatrix type="matrix" values="0 0 0 0 0.976471 0 0 0 0 0.756863 0 0 0 0 0.2 0 0 0 0.3 0"/>
<feBlend mode="normal" in2="effect1_dropShadow" result="effect2_dropShadow"/>
<feBlend mode="normal" in="SourceGraphic" in2="effect2_dropShadow" result="shape"/>
</filter>
</defs>
</svg>
